<svg id="approach" viewBox="0 0 72 58" xmlns="http://www.w3.org/2000/svg">
  <path d="M70.554 47.742c.798 0 1.446.652 1.446 1.457C72 54.059 68.096 58 63.28 58H8.72C3.905 58 0 54.059 0 49.199c0-.805.648-1.457 1.446-1.457l19.677.104c.799 0 1.446.652 1.446 1.456 0 .804-.647 1.456-1.446 1.456l-18.05-.104.01.042c.638 2.46 2.81 4.29 5.42 4.387l.218.004h54.558c2.706 0 4.982-1.863 5.638-4.39l.009-.043-17.569.104a1.45 1.45 0 0 1-1.44-1.323l-.006-.133c0-.804.647-1.456 1.446-1.456l19.197-.104zm-28.322.097c.799 0 1.447.652 1.447 1.456 0 .805-.648 1.457-1.447 1.457H28.774a1.451 1.451 0 0 1-1.446-1.457c0-.804.648-1.456 1.446-1.456h13.458zM58.914 0c4.416 0 7.994 3.613 7.994 8.067v35.256c0 .804-.648 1.456-1.447 1.456a1.451 1.451 0 0 1-1.446-1.456V8.067c0-2.848-2.284-5.154-5.1-5.154H12.357c-2.816 0-5.1 2.306-5.1 5.154v35.256c0 .804-.648 1.456-1.447 1.456a1.451 1.451 0 0 1-1.446-1.456V8.067C4.365 3.613 7.943 0 12.358 0h46.556zM36.445 9.664c5.225 0 9.46 4.265 9.46 9.526v8.415a4.124 4.124 0 0 1-2.708 3.88 14.92 14.92 0 0 1 5.937 5.495c.39.635.195 1.47-.436 1.862a1.338 1.338 0 0 1-1.85-.44 12.189 12.189 0 0 0-10.403-5.834 12.187 12.187 0 0 0-10.352 5.753 1.338 1.338 0 0 1-1.853.425 1.359 1.359 0 0 1-.422-1.866 14.941 14.941 0 0 1 5.874-5.396 4.12 4.12 0 0 1-2.707-3.88V19.19c0-5.261 4.236-9.526 9.46-9.526zm-5.134 7.21a6.4 6.4 0 0 0-1.258 3.822c0 3.543 2.862 6.414 6.392 6.414 3.53 0 6.392-2.871 6.392-6.414 0-.11-.003-.221-.01-.331-5.251 1.134-9.055.023-11.41-3.334l-.106-.156z" fill="#ff5081" fill-rule="nonzero"/>
</svg>
